{
  "attributes": [
    {
      "block": 1,
      "page": 1,
      "alt1.public_transport": 1,
      "alt1.bike_sharing": 250,
      "alt1.taxi": 3800,
      "alt1.car_sharing": 3800,
      "alt1.contract_level": 0,
      "alt1.plan_fee": 6000,
      "alt2.public_transport": 3,
      "alt2.bike_sharing": 200,
      "alt2.taxi": 3500,
      "alt2.car_sharing": 3800,
      "alt2.contract_level": 3,
      "alt2.plan_fee": 0.95,
      "alt3.public_transport": 4,
      "alt3.bike_sharing": 200,
      "alt3.taxi": 2500,
      "alt3.car_sharing": 2500,
      "alt3.contract_level": 2,
      "alt3.plan_fee": 1.15
    },
    {
      "block": 1,
      "page": 2,
      "alt1.public_transport": 1,
      "alt1.bike_sharing": 200,
      "alt1.taxi": 4000,
      "alt1.car_sharing": 3500,
      "alt1.contract_level": 0,
      "alt1.plan_fee": 3500,
      "alt2.public_transport": 2,
      "alt2.bike_sharing": 200,
      "alt2.taxi": 3000,
      "alt2.car_sharing": 3500,
      "alt2.contract_level": 2,
      "alt2.plan_fee": 1.05,
      "alt3.public_transport": 4,
      "alt3.bike_sharing": 200,
      "alt3.taxi": 2500,
      "alt3.car_sharing": 2500,
      "alt3.contract_level": 4,
      "alt3.plan_fee": 0.88
    },
    {
      "block": 1,
      "page": 3,
      "alt1.public_transport": 1,
      "alt1.bike_sharing": 220,
      "alt1.taxi": 4000,
      "alt1.car_sharing": 3500,
      "alt1.contract_level": 0,
      "alt1.plan_fee": 1000,
      "alt2.public_transport": 3,
      "alt2.bike_sharing": 200,
      "alt2.taxi": 3800,
      "alt2.car_sharing": 3500,
      "alt2.contract_level": 2,
      "alt2.plan_fee": 0.95,
      "alt3.public_transport": 4,
      "alt3.bike_sharing": 200,
      "alt3.taxi": 2000,
      "alt3.car_sharing": 2800,
      "alt3.contract_level": 4,
      "alt3.plan_fee": 0.85
    },
    {
      "block": 2,
      "page": 1,
      "alt1.public_transport": 1,
      "alt1.bike_sharing": 220,
      "alt1.taxi": 3800,
      "alt1.car_sharing": 3800,
      "alt1.contract_level": 0,
      "alt1.plan_fee": 2000,
      "alt2.public_transport": 2,
      "alt2.bike_sharing": 200,
      "alt2.taxi": 3800,
      "alt2.car_sharing": 3800,
      "alt2.contract_level": 3,
      "alt2.plan_fee": 0.95,
      "alt3.public_transport": 5,
      "alt3.bike_sharing": 100,
      "alt3.taxi": 2500,
      "alt3.car_sharing": 2500,
      "alt3.contract_level": 1,
      "alt3.plan_fee": 0.85
    },
    {
      "block": 2,
      "page": 2,
      "alt1.public_transport": 1,
      "alt1.bike_sharing": 220,
      "alt1.taxi": 4000,
      "alt1.car_sharing": 3800,
      "alt1.contract_level": 0,
      "alt1.plan_fee": 2000,
      "alt2.public_transport": 3,
      "alt2.bike_sharing": 200,
      "alt2.taxi": 3000,
      "alt2.car_sharing": 2800,
      "alt2.contract_level": 2,
      "alt2.plan_fee": 0.88,
      "alt3.public_transport": 4,
      "alt3.bike_sharing": 100,
      "alt3.taxi": 2500,
      "alt3.car_sharing": 2500,
      "alt3.contract_level": 3,
      "alt3.plan_fee": 0.8
    },
    {
      "block": 2,
      "page": 3,
      "alt1.public_transport": 1,
      "alt1.bike_sharing": 200,
      "alt1.taxi": 4000,
      "alt1.car_sharing": 3800,
      "alt1.contract_level": 0,
      "alt1.plan_fee": 6000,
      "alt2.public_transport": 3,
      "alt2.bike_sharing": 150,
      "alt2.taxi": 3500,
      "alt2.car_sharing": 3800,
      "alt2.contract_level": 2,
      "alt2.plan_fee": 0.8,
      "alt3.public_transport": 5,
      "alt3.bike_sharing": 150,
      "alt3.taxi": 3000,
      "alt3.car_sharing": 3500,
      "alt3.contract_level": 3,
      "alt3.plan_fee": 1.2
    },
    {
      "block": 3,
      "page": 1,
      "alt1.public_transport": 1,
      "alt1.bike_sharing": 250,
      "alt1.taxi": 4000,
      "alt1.car_sharing": 3800,
      "alt1.contract_level": 0,
      "alt1.plan_fee": 3500,
      "alt2.public_transport": 3,
      "alt2.bike_sharing": 220,
      "alt2.taxi": 3500,
      "alt2.car_sharing": 3500,
      "alt2.contract_level": 1,
      "alt2.plan_fee": 1.15,
      "alt3.public_transport": 5,
      "alt3.bike_sharing": 100,
      "alt3.taxi": 2500,
      "alt3.car_sharing": 3000,
      "alt3.contract_level": 4,
      "alt3.plan_fee": 0.85
    },
    {
      "block": 3,
      "page": 2,
      "alt1.public_transport": 1,
      "alt1.bike_sharing": 220,
      "alt1.taxi": 3500,
      "alt1.car_sharing": 3800,
      "alt1.contract_level": 0,
      "alt1.plan_fee": 6000,
      "alt2.public_transport": 2,
      "alt2.bike_sharing": 220,
      "alt2.taxi": 3500,
      "alt2.car_sharing": 3800,
      "alt2.contract_level": 3,
      "alt2.plan_fee": 1,
      "alt3.public_transport": 5,
      "alt3.bike_sharing": 100,
      "alt3.taxi": 3000,
      "alt3.car_sharing": 2500,
      "alt3.contract_level": 4,
      "alt3.plan_fee": 1.15
    },
    {
      "block": 3,
      "page": 3,
      "alt1.public_transport": 1,
      "alt1.bike_sharing": 220,
      "alt1.taxi": 4000,
      "alt1.car_sharing": 3800,
      "alt1.contract_level": 0,
      "alt1.plan_fee": 1000,
      "alt2.public_transport": 3,
      "alt2.bike_sharing": 200,
      "alt2.taxi": 3800,
      "alt2.car_sharing": 3000,
      "alt2.contract_level": 2,
      "alt2.plan_fee": 0.95,
      "alt3.public_transport": 5,
      "alt3.bike_sharing": 150,
      "alt3.taxi": 3000,
      "alt3.car_sharing": 2500,
      "alt3.contract_level": 1,
      "alt3.plan_fee": 1.12
    },
    {
      "block": 4,
      "page": 1,
      "alt1.public_transport": 1,
      "alt1.bike_sharing": 200,
      "alt1.taxi": 3800,
      "alt1.car_sharing": 3800,
      "alt1.contract_level": 0,
      "alt1.plan_fee": 2000,
      "alt2.public_transport": 3,
      "alt2.bike_sharing": 200,
      "alt2.taxi": 3500,
      "alt2.car_sharing": 2800,
      "alt2.contract_level": 2,
      "alt2.plan_fee": 0.88,
      "alt3.public_transport": 4,
      "alt3.bike_sharing": 100,
      "alt3.taxi": 3000,
      "alt3.car_sharing": 2500,
      "alt3.contract_level": 2,
      "alt3.plan_fee": 1.05
    },
    {
      "block": 4,
      "page": 2,
      "alt1.public_transport": 1,
      "alt1.bike_sharing": 150,
      "alt1.taxi": 3800,
      "alt1.car_sharing": 3800,
      "alt1.contract_level": 0,
      "alt1.plan_fee": 6000,
      "alt2.public_transport": 2,
      "alt2.bike_sharing": 150,
      "alt2.taxi": 3500,
      "alt2.car_sharing": 3500,
      "alt2.contract_level": 1,
      "alt2.plan_fee": 1.12,
      "alt3.public_transport": 5,
      "alt3.bike_sharing": 150,
      "alt3.taxi": 3000,
      "alt3.car_sharing": 3500,
      "alt3.contract_level": 3,
      "alt3.plan_fee": 1.12
    },
    {
      "block": 4,
      "page": 3,
      "alt1.public_transport": 1,
      "alt1.bike_sharing": 220,
      "alt1.taxi": 3800,
      "alt1.car_sharing": 3800,
      "alt1.contract_level": 0,
      "alt1.plan_fee": 6000,
      "alt2.public_transport": 3,
      "alt2.bike_sharing": 130,
      "alt2.taxi": 3500,
      "alt2.car_sharing": 3500,
      "alt2.contract_level": 3,
      "alt2.plan_fee": 1.05,
      "alt3.public_transport": 4,
      "alt3.bike_sharing": 100,
      "alt3.taxi": 3500,
      "alt3.car_sharing": 2500,
      "alt3.contract_level": 1,
      "alt3.plan_fee": 0.85
    },
    {
      "block": 5,
      "page": 1,
      "alt1.public_transport": 1,
      "alt1.bike_sharing": 250,
      "alt1.taxi": 3500,
      "alt1.car_sharing": 4000,
      "alt1.contract_level": 0,
      "alt1.plan_fee": 2000,
      "alt2.public_transport": 2,
      "alt2.bike_sharing": 150,
      "alt2.taxi": 3500,
      "alt2.car_sharing": 2800,
      "alt2.contract_level": 1,
      "alt2.plan_fee": 1.15,
      "alt3.public_transport": 5,
      "alt3.bike_sharing": 150,
      "alt3.taxi": 3500,
      "alt3.car_sharing": 2500,
      "alt3.contract_level": 1,
      "alt3.plan_fee": 0.88
    },
    {
      "block": 5,
      "page": 2,
      "alt1.public_transport": 1,
      "alt1.bike_sharing": 200,
      "alt1.taxi": 4000,
      "alt1.car_sharing": 4000,
      "alt1.contract_level": 0,
      "alt1.plan_fee": 6000,
      "alt2.public_transport": 2,
      "alt2.bike_sharing": 200,
      "alt2.taxi": 2500,
      "alt2.car_sharing": 3500,
      "alt2.contract_level": 3,
      "alt2.plan_fee": 1.05,
      "alt3.public_transport": 5,
      "alt3.bike_sharing": 200,
      "alt3.taxi": 2500,
      "alt3.car_sharing": 2500,
      "alt3.contract_level": 3,
      "alt3.plan_fee": 1
    },
    {
      "block": 5,
      "page": 3,
      "alt1.public_transport": 1,
      "alt1.bike_sharing": 200,
      "alt1.taxi": 4000,
      "alt1.car_sharing": 3800,
      "alt1.contract_level": 0,
      "alt1.plan_fee": 2000,
      "alt2.public_transport": 2,
      "alt2.bike_sharing": 200,
      "alt2.taxi": 3000,
      "alt2.car_sharing": 3500,
      "alt2.contract_level": 1,
      "alt2.plan_fee": 1.05,
      "alt3.public_transport": 4,
      "alt3.bike_sharing": 150,
      "alt3.taxi": 3000,
      "alt3.car_sharing": 2800,
      "alt3.contract_level": 4,
      "alt3.plan_fee": 1.05
    },
    {
      "block": 6,
      "page": 1,
      "alt1.public_transport": 1,
      "alt1.bike_sharing": 150,
      "alt1.taxi": 3800,
      "alt1.car_sharing": 3800,
      "alt1.contract_level": 0,
      "alt1.plan_fee": 2000,
      "alt2.public_transport": 2,
      "alt2.bike_sharing": 150,
      "alt2.taxi": 3000,
      "alt2.car_sharing": 3000,
      "alt2.contract_level": 2,
      "alt2.plan_fee": 1.2,
      "alt3.public_transport": 5,
      "alt3.bike_sharing": 150,
      "alt3.taxi": 2500,
      "alt3.car_sharing": 3000,
      "alt3.contract_level": 2,
      "alt3.plan_fee": 1.2
    },
    {
      "block": 6,
      "page": 2,
      "alt1.public_transport": 1,
      "alt1.bike_sharing": 220,
      "alt1.taxi": 3800,
      "alt1.car_sharing": 4000,
      "alt1.contract_level": 0,
      "alt1.plan_fee": 2000,
      "alt2.public_transport": 3,
      "alt2.bike_sharing": 200,
      "alt2.taxi": 3500,
      "alt2.car_sharing": 3800,
      "alt2.contract_level": 1,
      "alt2.plan_fee": 1.12,
      "alt3.public_transport": 4,
      "alt3.bike_sharing": 100,
      "alt3.taxi": 3500,
      "alt3.car_sharing": 2500,
      "alt3.contract_level": 3,
      "alt3.plan_fee": 1.2
    },
    {
      "block": 6,
      "page": 3,
      "alt1.public_transport": 1,
      "alt1.bike_sharing": 250,
      "alt1.taxi": 3500,
      "alt1.car_sharing": 3800,
      "alt1.contract_level": 0,
      "alt1.plan_fee": 3500,
      "alt2.public_transport": 3,
      "alt2.bike_sharing": 150,
      "alt2.taxi": 3500,
      "alt2.car_sharing": 3000,
      "alt2.contract_level": 2,
      "alt2.plan_fee": 1.05,
      "alt3.public_transport": 4,
      "alt3.bike_sharing": 100,
      "alt3.taxi": 3000,
      "alt3.car_sharing": 3000,
      "alt3.contract_level": 3,
      "alt3.plan_fee": 1.12
    },
    {
      "block": 7,
      "page": 1,
      "alt1.public_transport": 1,
      "alt1.bike_sharing": 250,
      "alt1.taxi": 3500,
      "alt1.car_sharing": 3500,
      "alt1.contract_level": 0,
      "alt1.plan_fee": 0,
      "alt2.public_transport": 2,
      "alt2.bike_sharing": 150,
      "alt2.taxi": 3500,
      "alt2.car_sharing": 3000,
      "alt2.contract_level": 2,
      "alt2.plan_fee": 1.2,
      "alt3.public_transport": 5,
      "alt3.bike_sharing": 100,
      "alt3.taxi": 3000,
      "alt3.car_sharing": 2800,
      "alt3.contract_level": 3,
      "alt3.plan_fee": 1.2
    },
    {
      "block": 7,
      "page": 2,
      "alt1.public_transport": 1,
      "alt1.bike_sharing": 250,
      "alt1.taxi": 3800,
      "alt1.car_sharing": 4000,
      "alt1.contract_level": 0,
      "alt1.plan_fee": 1000,
      "alt2.public_transport": 3,
      "alt2.bike_sharing": 200,
      "alt2.taxi": 3800,
      "alt2.car_sharing": 2800,
      "alt2.contract_level": 2,
      "alt2.plan_fee": 0.85,
      "alt3.public_transport": 5,
      "alt3.bike_sharing": 100,
      "alt3.taxi": 2000,
      "alt3.car_sharing": 2800,
      "alt3.contract_level": 3,
      "alt3.plan_fee": 1.2
    },
    {
      "block": 7,
      "page": 3,
      "alt1.public_transport": 1,
      "alt1.bike_sharing": 220,
      "alt1.taxi": 3800,
      "alt1.car_sharing": 4000,
      "alt1.contract_level": 0,
      "alt1.plan_fee": 0,
      "alt2.public_transport": 2,
      "alt2.bike_sharing": 150,
      "alt2.taxi": 3800,
      "alt2.car_sharing": 3000,
      "alt2.contract_level": 3,
      "alt2.plan_fee": 0.88,
      "alt3.public_transport": 4,
      "alt3.bike_sharing": 150,
      "alt3.taxi": 2500,
      "alt3.car_sharing": 2500,
      "alt3.contract_level": 3,
      "alt3.plan_fee": 1.15
    },
    {
      "block": 8,
      "page": 1,
      "alt1.public_transport": 1,
      "alt1.bike_sharing": 250,
      "alt1.taxi": 4000,
      "alt1.car_sharing": 4000,
      "alt1.contract_level": 0,
      "alt1.plan_fee": 1000,
      "alt2.public_transport": 3,
      "alt2.bike_sharing": 200,
      "alt2.taxi": 3800,
      "alt2.car_sharing": 2800,
      "alt2.contract_level": 2,
      "alt2.plan_fee": 1,
      "alt3.public_transport": 5,
      "alt3.bike_sharing": 150,
      "alt3.taxi": 2000,
      "alt3.car_sharing": 2800,
      "alt3.contract_level": 1,
      "alt3.plan_fee": 0.85
    },
    {
      "block": 8,
      "page": 2,
      "alt1.public_transport": 1,
      "alt1.bike_sharing": 200,
      "alt1.taxi": 4000,
      "alt1.car_sharing": 3000,
      "alt1.contract_level": 0,
      "alt1.plan_fee": 2000,
      "alt2.public_transport": 3,
      "alt2.bike_sharing": 200,
      "alt2.taxi": 3800,
      "alt2.car_sharing": 3000,
      "alt2.contract_level": 3,
      "alt2.plan_fee": 0.95,
      "alt3.public_transport": 5,
      "alt3.bike_sharing": 100,
      "alt3.taxi": 2000,
      "alt3.car_sharing": 2800,
      "alt3.contract_level": 3,
      "alt3.plan_fee": 0.85
    },
    {
      "block": 8,
      "page": 3,
      "alt1.public_transport": 1,
      "alt1.bike_sharing": 220,
      "alt1.taxi": 4000,
      "alt1.car_sharing": 3500,
      "alt1.contract_level": 0,
      "alt1.plan_fee": 1000,
      "alt2.public_transport": 2,
      "alt2.bike_sharing": 150,
      "alt2.taxi": 3000,
      "alt2.car_sharing": 3500,
      "alt2.contract_level": 3,
      "alt2.plan_fee": 0.95,
      "alt3.public_transport": 5,
      "alt3.bike_sharing": 100,
      "alt3.taxi": 2000,
      "alt3.car_sharing": 2500,
      "alt3.contract_level": 1,
      "alt3.plan_fee": 0.85
    },
    {
      "block": 9,
      "page": 1,
      "alt1.public_transport": 1,
      "alt1.bike_sharing": 200,
      "alt1.taxi": 4000,
      "alt1.car_sharing": 3800,
      "alt1.contract_level": 0,
      "alt1.plan_fee": 6000,
      "alt2.public_transport": 2,
      "alt2.bike_sharing": 200,
      "alt2.taxi": 3500,
      "alt2.car_sharing": 3000,
      "alt2.contract_level": 2,
      "alt2.plan_fee": 1,
      "alt3.public_transport": 4,
      "alt3.bike_sharing": 150,
      "alt3.taxi": 3500,
      "alt3.car_sharing": 2800,
      "alt3.contract_level": 3,
      "alt3.plan_fee": 1.2
    },
    {
      "block": 9,
      "page": 2,
      "alt1.public_transport": 1,
      "alt1.bike_sharing": 150,
      "alt1.taxi": 3800,
      "alt1.car_sharing": 3000,
      "alt1.contract_level": 0,
      "alt1.plan_fee": 6000,
      "alt2.public_transport": 3,
      "alt2.bike_sharing": 130,
      "alt2.taxi": 3000,
      "alt2.car_sharing": 3000,
      "alt2.contract_level": 3,
      "alt2.plan_fee": 1.2,
      "alt3.public_transport": 5,
      "alt3.bike_sharing": 100,
      "alt3.taxi": 3000,
      "alt3.car_sharing": 2800,
      "alt3.contract_level": 1,
      "alt3.plan_fee": 1.12
    },
    {
      "block": 9,
      "page": 3,
      "alt1.public_transport": 1,
      "alt1.bike_sharing": 250,
      "alt1.taxi": 3800,
      "alt1.car_sharing": 3500,
      "alt1.contract_level": 0,
      "alt1.plan_fee": 1000,
      "alt2.public_transport": 3,
      "alt2.bike_sharing": 150,
      "alt2.taxi": 3800,
      "alt2.car_sharing": 3500,
      "alt2.contract_level": 1,
      "alt2.plan_fee": 0.8,
      "alt3.public_transport": 5,
      "alt3.bike_sharing": 150,
      "alt3.taxi": 2500,
      "alt3.car_sharing": 2500,
      "alt3.contract_level": 3,
      "alt3.plan_fee": 1
    },
    {
      "block": 10,
      "page": 1,
      "alt1.public_transport": 1,
      "alt1.bike_sharing": 200,
      "alt1.taxi": 3500,
      "alt1.car_sharing": 4000,
      "alt1.contract_level": 0,
      "alt1.plan_fee": 3500,
      "alt2.public_transport": 2,
      "alt2.bike_sharing": 200,
      "alt2.taxi": 3500,
      "alt2.car_sharing": 3500,
      "alt2.contract_level": 1,
      "alt2.plan_fee": 1,
      "alt3.public_transport": 5,
      "alt3.bike_sharing": 100,
      "alt3.taxi": 2000,
      "alt3.car_sharing": 2500,
      "alt3.contract_level": 3,
      "alt3.plan_fee": 1.2
    },
    {
      "block": 10,
      "page": 2,
      "alt1.public_transport": 1,
      "alt1.bike_sharing": 200,
      "alt1.taxi": 3500,
      "alt1.car_sharing": 3500,
      "alt1.contract_level": 0,
      "alt1.plan_fee": 6000,
      "alt2.public_transport": 3,
      "alt2.bike_sharing": 200,
      "alt2.taxi": 3500,
      "alt2.car_sharing": 2800,
      "alt2.contract_level": 3,
      "alt2.plan_fee": 1.12,
      "alt3.public_transport": 5,
      "alt3.bike_sharing": 150,
      "alt3.taxi": 2000,
      "alt3.car_sharing": 2500,
      "alt3.contract_level": 1,
      "alt3.plan_fee": 1.2
    },
    {
      "block": 10,
      "page": 3,
      "alt1.public_transport": 1,
      "alt1.bike_sharing": 220,
      "alt1.taxi": 3800,
      "alt1.car_sharing": 3500,
      "alt1.contract_level": 0,
      "alt1.plan_fee": 1000,
      "alt2.public_transport": 2,
      "alt2.bike_sharing": 150,
      "alt2.taxi": 3000,
      "alt2.car_sharing": 3500,
      "alt2.contract_level": 1,
      "alt2.plan_fee": 1.05,
      "alt3.public_transport": 5,
      "alt3.bike_sharing": 100,
      "alt3.taxi": 2000,
      "alt3.car_sharing": 3500,
      "alt3.contract_level": 1,
      "alt3.plan_fee": 0.85
    },
    {
      "block": 11,
      "page": 1,
      "alt1.public_transport": 1,
      "alt1.bike_sharing": 220,
      "alt1.taxi": 3800,
      "alt1.car_sharing": 3500,
      "alt1.contract_level": 0,
      "alt1.plan_fee": 2000,
      "alt2.public_transport": 3,
      "alt2.bike_sharing": 150,
      "alt2.taxi": 3500,
      "alt2.car_sharing": 3000,
      "alt2.contract_level": 3,
      "alt2.plan_fee": 0.95,
      "alt3.public_transport": 5,
      "alt3.bike_sharing": 150,
      "alt3.taxi": 2500,
      "alt3.car_sharing": 3000,
      "alt3.contract_level": 2,
      "alt3.plan_fee": 1.05
    },
    {
      "block": 11,
      "page": 2,
      "alt1.public_transport": 1,
      "alt1.bike_sharing": 220,
      "alt1.taxi": 4000,
      "alt1.car_sharing": 3500,
      "alt1.contract_level": 0,
      "alt1.plan_fee": 0,
      "alt2.public_transport": 2,
      "alt2.bike_sharing": 200,
      "alt2.taxi": 3000,
      "alt2.car_sharing": 3500,
      "alt2.contract_level": 2,
      "alt2.plan_fee": 0.85,
      "alt3.public_transport": 4,
      "alt3.bike_sharing": 150,
      "alt3.taxi": 2500,
      "alt3.car_sharing": 3500,
      "alt3.contract_level": 3,
      "alt3.plan_fee": 1.05
    },
    {
      "block": 11,
      "page": 3,
      "alt1.public_transport": 1,
      "alt1.bike_sharing": 250,
      "alt1.taxi": 3800,
      "alt1.car_sharing": 3800,
      "alt1.contract_level": 0,
      "alt1.plan_fee": 6000,
      "alt2.public_transport": 3,
      "alt2.bike_sharing": 130,
      "alt2.taxi": 3000,
      "alt2.car_sharing": 3000,
      "alt2.contract_level": 2,
      "alt2.plan_fee": 0.88,
      "alt3.public_transport": 4,
      "alt3.bike_sharing": 100,
      "alt3.taxi": 2000,
      "alt3.car_sharing": 2500,
      "alt3.contract_level": 3,
      "alt3.plan_fee": 0.85
    },
    {
      "block": 12,
      "page": 1,
      "alt1.public_transport": 1,
      "alt1.bike_sharing": 250,
      "alt1.taxi": 3500,
      "alt1.car_sharing": 3500,
      "alt1.contract_level": 0,
      "alt1.plan_fee": 2000,
      "alt2.public_transport": 2,
      "alt2.bike_sharing": 220,
      "alt2.taxi": 3000,
      "alt2.car_sharing": 3500,
      "alt2.contract_level": 1,
      "alt2.plan_fee": 1.15,
      "alt3.public_transport": 5,
      "alt3.bike_sharing": 100,
      "alt3.taxi": 3000,
      "alt3.car_sharing": 3500,
      "alt3.contract_level": 4,
      "alt3.plan_fee": 1
    },
    {
      "block": 12,
      "page": 2,
      "alt1.public_transport": 1,
      "alt1.bike_sharing": 250,
      "alt1.taxi": 4000,
      "alt1.car_sharing": 4000,
      "alt1.contract_level": 0,
      "alt1.plan_fee": 1000,
      "alt2.public_transport": 3,
      "alt2.bike_sharing": 150,
      "alt2.taxi": 2500,
      "alt2.car_sharing": 3800,
      "alt2.contract_level": 1,
      "alt2.plan_fee": 0.88,
      "alt3.public_transport": 4,
      "alt3.bike_sharing": 100,
      "alt3.taxi": 2000,
      "alt3.car_sharing": 2500,
      "alt3.contract_level": 1,
      "alt3.plan_fee": 0.8
    },
    {
      "block": 12,
      "page": 3,
      "alt1.public_transport": 1,
      "alt1.bike_sharing": 250,
      "alt1.taxi": 3500,
      "alt1.car_sharing": 3800,
      "alt1.contract_level": 0,
      "alt1.plan_fee": 1000,
      "alt2.public_transport": 3,
      "alt2.bike_sharing": 150,
      "alt2.taxi": 3000,
      "alt2.car_sharing": 3500,
      "alt2.contract_level": 3,
      "alt2.plan_fee": 1.15,
      "alt3.public_transport": 4,
      "alt3.bike_sharing": 150,
      "alt3.taxi": 3000,
      "alt3.car_sharing": 2800,
      "alt3.contract_level": 2,
      "alt3.plan_fee": 1.2
    },
    {
      "block": 13,
      "page": 1,
      "alt1.public_transport": 1,
      "alt1.bike_sharing": 220,
      "alt1.taxi": 3800,
      "alt1.car_sharing": 4000,
      "alt1.contract_level": 0,
      "alt1.plan_fee": 6000,
      "alt2.public_transport": 3,
      "alt2.bike_sharing": 200,
      "alt2.taxi": 3000,
      "alt2.car_sharing": 3500,
      "alt2.contract_level": 1,
      "alt2.plan_fee": 1.2,
      "alt3.public_transport": 4,
      "alt3.bike_sharing": 100,
      "alt3.taxi": 3000,
      "alt3.car_sharing": 3000,
      "alt3.contract_level": 3,
      "alt3.plan_fee": 1.2
    },
    {
      "block": 13,
      "page": 2,
      "alt1.public_transport": 1,
      "alt1.bike_sharing": 250,
      "alt1.taxi": 3800,
      "alt1.car_sharing": 4000,
      "alt1.contract_level": 0,
      "alt1.plan_fee": 3500,
      "alt2.public_transport": 3,
      "alt2.bike_sharing": 200,
      "alt2.taxi": 3000,
      "alt2.car_sharing": 3500,
      "alt2.contract_level": 1,
      "alt2.plan_fee": 1.05,
      "alt3.public_transport": 4,
      "alt3.bike_sharing": 100,
      "alt3.taxi": 2000,
      "alt3.car_sharing": 2800,
      "alt3.contract_level": 4,
      "alt3.plan_fee": 1.2
    },
    {
      "block": 13,
      "page": 3,
      "alt1.public_transport": 1,
      "alt1.bike_sharing": 250,
      "alt1.taxi": 4000,
      "alt1.car_sharing": 3000,
      "alt1.contract_level": 0,
      "alt1.plan_fee": 1000,
      "alt2.public_transport": 2,
      "alt2.bike_sharing": 130,
      "alt2.taxi": 2500,
      "alt2.car_sharing": 3000,
      "alt2.contract_level": 1,
      "alt2.plan_fee": 0.8,
      "alt3.public_transport": 4,
      "alt3.bike_sharing": 100,
      "alt3.taxi": 2500,
      "alt3.car_sharing": 2800,
      "alt3.contract_level": 3,
      "alt3.plan_fee": 1.15
    },
    {
      "block": 14,
      "page": 1,
      "alt1.public_transport": 1,
      "alt1.bike_sharing": 220,
      "alt1.taxi": 4000,
      "alt1.car_sharing": 4000,
      "alt1.contract_level": 0,
      "alt1.plan_fee": 1000,
      "alt2.public_transport": 2,
      "alt2.bike_sharing": 150,
      "alt2.taxi": 3500,
      "alt2.car_sharing": 3000,
      "alt2.contract_level": 1,
      "alt2.plan_fee": 0.8,
      "alt3.public_transport": 4,
      "alt3.bike_sharing": 150,
      "alt3.taxi": 2500,
      "alt3.car_sharing": 2500,
      "alt3.contract_level": 4,
      "alt3.plan_fee": 0.85
    },
    {
      "block": 14,
      "page": 2,
      "alt1.public_transport": 1,
      "alt1.bike_sharing": 220,
      "alt1.taxi": 3800,
      "alt1.car_sharing": 3800,
      "alt1.contract_level": 0,
      "alt1.plan_fee": 0,
      "alt2.public_transport": 2,
      "alt2.bike_sharing": 220,
      "alt2.taxi": 3800,
      "alt2.car_sharing": 3000,
      "alt2.contract_level": 1,
      "alt2.plan_fee": 1.05,
      "alt3.public_transport": 5,
      "alt3.bike_sharing": 150,
      "alt3.taxi": 3000,
      "alt3.car_sharing": 2500,
      "alt3.contract_level": 2,
      "alt3.plan_fee": 1.15
    },
    {
      "block": 14,
      "page": 3,
      "alt1.public_transport": 1,
      "alt1.bike_sharing": 250,
      "alt1.taxi": 3500,
      "alt1.car_sharing": 3000,
      "alt1.contract_level": 0,
      "alt1.plan_fee": 6000,
      "alt2.public_transport": 3,
      "alt2.bike_sharing": 150,
      "alt2.taxi": 3000,
      "alt2.car_sharing": 3000,
      "alt2.contract_level": 1,
      "alt2.plan_fee": 1,
      "alt3.public_transport": 5,
      "alt3.bike_sharing": 150,
      "alt3.taxi": 3000,
      "alt3.car_sharing": 2500,
      "alt3.contract_level": 3,
      "alt3.plan_fee": 0.88
    },
    {
      "block": 15,
      "page": 1,
      "alt1.public_transport": 1,
      "alt1.bike_sharing": 220,
      "alt1.taxi": 3800,
      "alt1.car_sharing": 3800,
      "alt1.contract_level": 0,
      "alt1.plan_fee": 3500,
      "alt2.public_transport": 3,
      "alt2.bike_sharing": 200,
      "alt2.taxi": 3000,
      "alt2.car_sharing": 3000,
      "alt2.contract_level": 3,
      "alt2.plan_fee": 0.85,
      "alt3.public_transport": 5,
      "alt3.bike_sharing": 150,
      "alt3.taxi": 2500,
      "alt3.car_sharing": 3000,
      "alt3.contract_level": 3,
      "alt3.plan_fee": 1.2
    },
    {
      "block": 15,
      "page": 2,
      "alt1.public_transport": 1,
      "alt1.bike_sharing": 250,
      "alt1.taxi": 4000,
      "alt1.car_sharing": 3000,
      "alt1.contract_level": 0,
      "alt1.plan_fee": 0,
      "alt2.public_transport": 2,
      "alt2.bike_sharing": 150,
      "alt2.taxi": 3800,
      "alt2.car_sharing": 2800,
      "alt2.contract_level": 1,
      "alt2.plan_fee": 1,
      "alt3.public_transport": 5,
      "alt3.bike_sharing": 150,
      "alt3.taxi": 2000,
      "alt3.car_sharing": 2800,
      "alt3.contract_level": 3,
      "alt3.plan_fee": 1.2
    },
    {
      "block": 15,
      "page": 3,
      "alt1.public_transport": 1,
      "alt1.bike_sharing": 200,
      "alt1.taxi": 3800,
      "alt1.car_sharing": 4000,
      "alt1.contract_level": 0,
      "alt1.plan_fee": 1000,
      "alt2.public_transport": 3,
      "alt2.bike_sharing": 150,
      "alt2.taxi": 3000,
      "alt2.car_sharing": 2800,
      "alt2.contract_level": 1,
      "alt2.plan_fee": 1.15,
      "alt3.public_transport": 5,
      "alt3.bike_sharing": 150,
      "alt3.taxi": 2500,
      "alt3.car_sharing": 2800,
      "alt3.contract_level": 4,
      "alt3.plan_fee": 1.12
    },
    {
      "block": 16,
      "page": 1,
      "alt1.public_transport": 1,
      "alt1.bike_sharing": 220,
      "alt1.taxi": 3800,
      "alt1.car_sharing": 4000,
      "alt1.contract_level": 0,
      "alt1.plan_fee": 0,
      "alt2.public_transport": 3,
      "alt2.bike_sharing": 130,
      "alt2.taxi": 3500,
      "alt2.car_sharing": 3500,
      "alt2.contract_level": 1,
      "alt2.plan_fee": 1.05,
      "alt3.public_transport": 4,
      "alt3.bike_sharing": 100,
      "alt3.taxi": 2500,
      "alt3.car_sharing": 2500,
      "alt3.contract_level": 1,
      "alt3.plan_fee": 0.8
    },
    {
      "block": 16,
      "page": 2,
      "alt1.public_transport": 1,
      "alt1.bike_sharing": 220,
      "alt1.taxi": 3500,
      "alt1.car_sharing": 4000,
      "alt1.contract_level": 0,
      "alt1.plan_fee": 0,
      "alt2.public_transport": 2,
      "alt2.bike_sharing": 200,
      "alt2.taxi": 3000,
      "alt2.car_sharing": 3000,
      "alt2.contract_level": 3,
      "alt2.plan_fee": 1.2,
      "alt3.public_transport": 4,
      "alt3.bike_sharing": 150,
      "alt3.taxi": 3000,
      "alt3.car_sharing": 3000,
      "alt3.contract_level": 4,
      "alt3.plan_fee": 1.15
    },
    {
      "block": 16,
      "page": 3,
      "alt1.public_transport": 1,
      "alt1.bike_sharing": 250,
      "alt1.taxi": 3500,
      "alt1.car_sharing": 4000,
      "alt1.contract_level": 0,
      "alt1.plan_fee": 2000,
      "alt2.public_transport": 2,
      "alt2.bike_sharing": 220,
      "alt2.taxi": 3000,
      "alt2.car_sharing": 3000,
      "alt2.contract_level": 1,
      "alt2.plan_fee": 0.8,
      "alt3.public_transport": 4,
      "alt3.bike_sharing": 100,
      "alt3.taxi": 2500,
      "alt3.car_sharing": 3000,
      "alt3.contract_level": 3,
      "alt3.plan_fee": 0.85
    },
    {
      "block": 17,
      "page": 1,
      "alt1.public_transport": 1,
      "alt1.bike_sharing": 220,
      "alt1.taxi": 3800,
      "alt1.car_sharing": 3500,
      "alt1.contract_level": 0,
      "alt1.plan_fee": 6000,
      "alt2.public_transport": 3,
      "alt2.bike_sharing": 220,
      "alt2.taxi": 2500,
      "alt2.car_sharing": 2800,
      "alt2.contract_level": 1,
      "alt2.plan_fee": 0.8,
      "alt3.public_transport": 5,
      "alt3.bike_sharing": 100,
      "alt3.taxi": 2000,
      "alt3.car_sharing": 2500,
      "alt3.contract_level": 2,
      "alt3.plan_fee": 0.88
    },
    {
      "block": 17,
      "page": 2,
      "alt1.public_transport": 1,
      "alt1.bike_sharing": 250,
      "alt1.taxi": 4000,
      "alt1.car_sharing": 3800,
      "alt1.contract_level": 0,
      "alt1.plan_fee": 1000,
      "alt2.public_transport": 2,
      "alt2.bike_sharing": 200,
      "alt2.taxi": 3800,
      "alt2.car_sharing": 3000,
      "alt2.contract_level": 2,
      "alt2.plan_fee": 1.05,
      "alt3.public_transport": 5,
      "alt3.bike_sharing": 100,
      "alt3.taxi": 2000,
      "alt3.car_sharing": 2800,
      "alt3.contract_level": 2,
      "alt3.plan_fee": 0.8
    },
    {
      "block": 17,
      "page": 3,
      "alt1.public_transport": 1,
      "alt1.bike_sharing": 250,
      "alt1.taxi": 3500,
      "alt1.car_sharing": 4000,
      "alt1.contract_level": 0,
      "alt1.plan_fee": 3500,
      "alt2.public_transport": 2,
      "alt2.bike_sharing": 150,
      "alt2.taxi": 3000,
      "alt2.car_sharing": 2800,
      "alt2.contract_level": 1,
      "alt2.plan_fee": 0.8,
      "alt3.public_transport": 4,
      "alt3.bike_sharing": 100,
      "alt3.taxi": 3000,
      "alt3.car_sharing": 2800,
      "alt3.contract_level": 3,
      "alt3.plan_fee": 0.88
    },
    {
      "block": 18,
      "page": 1,
      "alt1.public_transport": 1,
      "alt1.bike_sharing": 200,
      "alt1.taxi": 4000,
      "alt1.car_sharing": 4000,
      "alt1.contract_level": 0,
      "alt1.plan_fee": 2000,
      "alt2.public_transport": 2,
      "alt2.bike_sharing": 200,
      "alt2.taxi": 3500,
      "alt2.car_sharing": 3500,
      "alt2.contract_level": 1,
      "alt2.plan_fee": 0.95,
      "alt3.public_transport": 4,
      "alt3.bike_sharing": 150,
      "alt3.taxi": 2000,
      "alt3.car_sharing": 2800,
      "alt3.contract_level": 3,
      "alt3.plan_fee": 0.8
    },
    {
      "block": 18,
      "page": 2,
      "alt1.public_transport": 1,
      "alt1.bike_sharing": 200,
      "alt1.taxi": 4000,
      "alt1.car_sharing": 3800,
      "alt1.contract_level": 0,
      "alt1.plan_fee": 1000,
      "alt2.public_transport": 3,
      "alt2.bike_sharing": 200,
      "alt2.taxi": 2500,
      "alt2.car_sharing": 3500,
      "alt2.contract_level": 2,
      "alt2.plan_fee": 0.85,
      "alt3.public_transport": 4,
      "alt3.bike_sharing": 200,
      "alt3.taxi": 2500,
      "alt3.car_sharing": 3000,
      "alt3.contract_level": 3,
      "alt3.plan_fee": 1
    },
    {
      "block": 18,
      "page": 3,
      "alt1.public_transport": 1,
      "alt1.bike_sharing": 200,
      "alt1.taxi": 3800,
      "alt1.car_sharing": 3500,
      "alt1.contract_level": 0,
      "alt1.plan_fee": 6000,
      "alt2.public_transport": 3,
      "alt2.bike_sharing": 200,
      "alt2.taxi": 3800,
      "alt2.car_sharing": 3500,
      "alt2.contract_level": 2,
      "alt2.plan_fee": 1.15,
      "alt3.public_transport": 4,
      "alt3.bike_sharing": 100,
      "alt3.taxi": 2500,
      "alt3.car_sharing": 3500,
      "alt3.contract_level": 3,
      "alt3.plan_fee": 0.88
    },
    {
      "block": 19,
      "page": 1,
      "alt1.public_transport": 1,
      "alt1.bike_sharing": 250,
      "alt1.taxi": 4000,
      "alt1.car_sharing": 4000,
      "alt1.contract_level": 0,
      "alt1.plan_fee": 3500,
      "alt2.public_transport": 3,
      "alt2.bike_sharing": 220,
      "alt2.taxi": 3800,
      "alt2.car_sharing": 2800,
      "alt2.contract_level": 1,
      "alt2.plan_fee": 1.15,
      "alt3.public_transport": 5,
      "alt3.bike_sharing": 100,
      "alt3.taxi": 2000,
      "alt3.car_sharing": 2800,
      "alt3.contract_level": 4,
      "alt3.plan_fee": 0.85
    },
    {
      "block": 19,
      "page": 2,
      "alt1.public_transport": 1,
      "alt1.bike_sharing": 250,
      "alt1.taxi": 4000,
      "alt1.car_sharing": 3800,
      "alt1.contract_level": 0,
      "alt1.plan_fee": 1000,
      "alt2.public_transport": 2,
      "alt2.bike_sharing": 200,
      "alt2.taxi": 3800,
      "alt2.car_sharing": 3800,
      "alt2.contract_level": 2,
      "alt2.plan_fee": 1,
      "alt3.public_transport": 5,
      "alt3.bike_sharing": 100,
      "alt3.taxi": 2500,
      "alt3.car_sharing": 3500,
      "alt3.contract_level": 2,
      "alt3.plan_fee": 0.95
    },
    {
      "block": 19,
      "page": 3,
      "alt1.public_transport": 1,
      "alt1.bike_sharing": 200,
      "alt1.taxi": 3800,
      "alt1.car_sharing": 4000,
      "alt1.contract_level": 0,
      "alt1.plan_fee": 3500,
      "alt2.public_transport": 3,
      "alt2.bike_sharing": 200,
      "alt2.taxi": 3500,
      "alt2.car_sharing": 3500,
      "alt2.contract_level": 3,
      "alt2.plan_fee": 1,
      "alt3.public_transport": 4,
      "alt3.bike_sharing": 150,
      "alt3.taxi": 3000,
      "alt3.car_sharing": 3000,
      "alt3.contract_level": 4,
      "alt3.plan_fee": 0.95
    },
    {
      "block": 20,
      "page": 1,
      "alt1.public_transport": 1,
      "alt1.bike_sharing": 220,
      "alt1.taxi": 4000,
      "alt1.car_sharing": 3500,
      "alt1.contract_level": 0,
      "alt1.plan_fee": 3500,
      "alt2.public_transport": 3,
      "alt2.bike_sharing": 200,
      "alt2.taxi": 3800,
      "alt2.car_sharing": 3500,
      "alt2.contract_level": 1,
      "alt2.plan_fee": 1.05,
      "alt3.public_transport": 5,
      "alt3.bike_sharing": 150,
      "alt3.taxi": 2000,
      "alt3.car_sharing": 3000,
      "alt3.contract_level": 2,
      "alt3.plan_fee": 0.8
    },
    {
      "block": 20,
      "page": 2,
      "alt1.public_transport": 1,
      "alt1.bike_sharing": 250,
      "alt1.taxi": 3800,
      "alt1.car_sharing": 3800,
      "alt1.contract_level": 0,
      "alt1.plan_fee": 1000,
      "alt2.public_transport": 3,
      "alt2.bike_sharing": 150,
      "alt2.taxi": 3800,
      "alt2.car_sharing": 3500,
      "alt2.contract_level": 2,
      "alt2.plan_fee": 1.12,
      "alt3.public_transport": 5,
      "alt3.bike_sharing": 100,
      "alt3.taxi": 2000,
      "alt3.car_sharing": 2800,
      "alt3.contract_level": 4,
      "alt3.plan_fee": 0.8
    },
    {
      "block": 20,
      "page": 3,
      "alt1.public_transport": 1,
      "alt1.bike_sharing": 250,
      "alt1.taxi": 4000,
      "alt1.car_sharing": 3800,
      "alt1.contract_level": 0,
      "alt1.plan_fee": 3500,
      "alt2.public_transport": 3,
      "alt2.bike_sharing": 200,
      "alt2.taxi": 3500,
      "alt2.car_sharing": 3500,
      "alt2.contract_level": 2,
      "alt2.plan_fee": 1.2,
      "alt3.public_transport": 5,
      "alt3.bike_sharing": 100,
      "alt3.taxi": 2500,
      "alt3.car_sharing": 2800,
      "alt3.contract_level": 1,
      "alt3.plan_fee": 1.2
    },
    {
      "block": 21,
      "page": 1,
      "alt1.public_transport": 1,
      "alt1.bike_sharing": 200,
      "alt1.taxi": 3500,
      "alt1.car_sharing": 4000,
      "alt1.contract_level": 0,
      "alt1.plan_fee": 3500,
      "alt2.public_transport": 3,
      "alt2.bike_sharing": 200,
      "alt2.taxi": 3000,
      "alt2.car_sharing": 3500,
      "alt2.contract_level": 2,
      "alt2.plan_fee": 1.15,
      "alt3.public_transport": 4,
      "alt3.bike_sharing": 200,
      "alt3.taxi": 3000,
      "alt3.car_sharing": 2800,
      "alt3.contract_level": 3,
      "alt3.plan_fee": 1.12
    },
    {
      "block": 21,
      "page": 2,
      "alt1.public_transport": 1,
      "alt1.bike_sharing": 220,
      "alt1.taxi": 3800,
      "alt1.car_sharing": 4000,
      "alt1.contract_level": 0,
      "alt1.plan_fee": 2000,
      "alt2.public_transport": 3,
      "alt2.bike_sharing": 150,
      "alt2.taxi": 3500,
      "alt2.car_sharing": 3800,
      "alt2.contract_level": 3,
      "alt2.plan_fee": 1.12,
      "alt3.public_transport": 5,
      "alt3.bike_sharing": 150,
      "alt3.taxi": 3500,
      "alt3.car_sharing": 2500,
      "alt3.contract_level": 1,
      "alt3.plan_fee": 1.12
    },
    {
      "block": 21,
      "page": 3,
      "alt1.public_transport": 1,
      "alt1.bike_sharing": 250,
      "alt1.taxi": 4000,
      "alt1.car_sharing": 3500,
      "alt1.contract_level": 0,
      "alt1.plan_fee": 6000,
      "alt2.public_transport": 2,
      "alt2.bike_sharing": 150,
      "alt2.taxi": 3800,
      "alt2.car_sharing": 3500,
      "alt2.contract_level": 2,
      "alt2.plan_fee": 1.05,
      "alt3.public_transport": 4,
      "alt3.bike_sharing": 100,
      "alt3.taxi": 2000,
      "alt3.car_sharing": 2800,
      "alt3.contract_level": 4,
      "alt3.plan_fee": 0.8
    },
    {
      "block": 22,
      "page": 1,
      "alt1.public_transport": 1,
      "alt1.bike_sharing": 250,
      "alt1.taxi": 4000,
      "alt1.car_sharing": 4000,
      "alt1.contract_level": 0,
      "alt1.plan_fee": 2000,
      "alt2.public_transport": 2,
      "alt2.bike_sharing": 130,
      "alt2.taxi": 3800,
      "alt2.car_sharing": 3000,
      "alt2.contract_level": 3,
      "alt2.plan_fee": 0.95,
      "alt3.public_transport": 4,
      "alt3.bike_sharing": 100,
      "alt3.taxi": 2000,
      "alt3.car_sharing": 2500,
      "alt3.contract_level": 1,
      "alt3.plan_fee": 0.85
    },
    {
      "block": 22,
      "page": 2,
      "alt1.public_transport": 1,
      "alt1.bike_sharing": 220,
      "alt1.taxi": 3800,
      "alt1.car_sharing": 3000,
      "alt1.contract_level": 0,
      "alt1.plan_fee": 6000,
      "alt2.public_transport": 3,
      "alt2.bike_sharing": 200,
      "alt2.taxi": 3000,
      "alt2.car_sharing": 2800,
      "alt2.contract_level": 2,
      "alt2.plan_fee": 1.12,
      "alt3.public_transport": 4,
      "alt3.bike_sharing": 100,
      "alt3.taxi": 2000,
      "alt3.car_sharing": 2500,
      "alt3.contract_level": 4,
      "alt3.plan_fee": 1.2
    },
    {
      "block": 22,
      "page": 3,
      "alt1.public_transport": 1,
      "alt1.bike_sharing": 200,
      "alt1.taxi": 3500,
      "alt1.car_sharing": 3500,
      "alt1.contract_level": 0,
      "alt1.plan_fee": 6000,
      "alt2.public_transport": 3,
      "alt2.bike_sharing": 150,
      "alt2.taxi": 3500,
      "alt2.car_sharing": 3500,
      "alt2.contract_level": 3,
      "alt2.plan_fee": 1.15,
      "alt3.public_transport": 4,
      "alt3.bike_sharing": 100,
      "alt3.taxi": 3500,
      "alt3.car_sharing": 2800,
      "alt3.contract_level": 4,
      "alt3.plan_fee": 0.8
    },
    {
      "block": 23,
      "page": 1,
      "alt1.public_transport": 1,
      "alt1.bike_sharing": 250,
      "alt1.taxi": 4000,
      "alt1.car_sharing": 3500,
      "alt1.contract_level": 0,
      "alt1.plan_fee": 6000,
      "alt2.public_transport": 3,
      "alt2.bike_sharing": 200,
      "alt2.taxi": 3800,
      "alt2.car_sharing": 3000,
      "alt2.contract_level": 1,
      "alt2.plan_fee": 1.15,
      "alt3.public_transport": 4,
      "alt3.bike_sharing": 100,
      "alt3.taxi": 2500,
      "alt3.car_sharing": 2800,
      "alt3.contract_level": 4,
      "alt3.plan_fee": 1.2
    },
    {
      "block": 23,
      "page": 2,
      "alt1.public_transport": 1,
      "alt1.bike_sharing": 250,
      "alt1.taxi": 3800,
      "alt1.car_sharing": 3500,
      "alt1.contract_level": 0,
      "alt1.plan_fee": 2000,
      "alt2.public_transport": 3,
      "alt2.bike_sharing": 130,
      "alt2.taxi": 3000,
      "alt2.car_sharing": 2800,
      "alt2.contract_level": 3,
      "alt2.plan_fee": 1.2,
      "alt3.public_transport": 4,
      "alt3.bike_sharing": 100,
      "alt3.taxi": 2000,
      "alt3.car_sharing": 2500,
      "alt3.contract_level": 4,
      "alt3.plan_fee": 1.12
    },
    {
      "block": 23,
      "page": 3,
      "alt1.public_transport": 1,
      "alt1.bike_sharing": 250,
      "alt1.taxi": 4000,
      "alt1.car_sharing": 3800,
      "alt1.contract_level": 0,
      "alt1.plan_fee": 0,
      "alt2.public_transport": 2,
      "alt2.bike_sharing": 200,
      "alt2.taxi": 2500,
      "alt2.car_sharing": 3500,
      "alt2.contract_level": 3,
      "alt2.plan_fee": 1.15,
      "alt3.public_transport": 5,
      "alt3.bike_sharing": 100,
      "alt3.taxi": 2500,
      "alt3.car_sharing": 2500,
      "alt3.contract_level": 3,
      "alt3.plan_fee": 1.12
    }
  ],

  "value_map": {
    "payg": {
      "public_transport": [
        { "symbol": "option_1", "value": 1, "price": 0 }
      ],

      "bike_sharing": [
        { "symbol": "option_3", "value": 150 },
        { "symbol": "option_4", "value": 200 },
        { "symbol": "option_5", "value": 220 },
        { "symbol": "option_6", "value": 250 }
      ],

      "taxi": [
        { "symbol": "option_4", "value": 3500 },
        { "symbol": "option_5", "value": 3800 },
        { "symbol": "option_6", "value": 4000 }
      ],

      "car_sharing": [
        { "symbol": "option_3", "value": 3000 },
        { "symbol": "option_4", "value": 3500 },
        { "symbol": "option_5", "value": 3800 },
        { "symbol": "option_6", "value": 4000 }
      ],

      "plan_fee": [
        { "symbol": "option_1", "value": 0 },
        { "symbol": "option_2", "value": 1000 },
        { "symbol": "option_3", "value": 2000 },
        { "symbol": "option_4", "value": 3500 },
        { "symbol": "option_5", "value": 6000 }
      ],

      "contract_level": [
        { "symbol": "option_1", "value": 0 }
      ]

    },

    "weekly": {
      "public_transport": [
        { "symbol": "option_2", "value": 2, "price": 4800 },
        { "symbol": "option_3", "value": 3, "price": 4950 }
      ],

      "bike_sharing": [
        { "symbol": "option_2", "value": 130 },
        { "symbol": "option_3", "value": 150 },
        { "symbol": "option_4", "value": 200 },
        { "symbol": "option_5", "value": 220 }
      ],

      "taxi": [
        { "symbol": "option_2", "value": 2500 },
        { "symbol": "option_3", "value": 3000 },
        { "symbol": "option_4", "value": 3500 },
        { "symbol": "option_5", "value": 3800 }
      ],

      "car_sharing": [
        { "symbol": "option_2", "value": 2800 },
        { "symbol": "option_3", "value": 3000 },
        { "symbol": "option_4", "value": 3500 },
        { "symbol": "option_5", "value": 3800 }
      ],

      "plan_fee": [
        { "symbol": "multiplier", "value": 0.80, "multiplier": 0.80 },
        { "symbol": "multiplier", "value": 0.85, "multiplier": 0.85 },
        { "symbol": "multiplier", "value": 0.88, "multiplier": 0.88 },
        { "symbol": "multiplier", "value": 0.95, "multiplier": 0.95 },
        { "symbol": "multiplier", "value": 1.00, "multiplier": 1.00 },
        { "symbol": "multiplier", "value": 1.05, "multiplier": 1.05 },
        { "symbol": "multiplier", "value": 1.12, "multiplier": 1.12 },
        { "symbol": "multiplier", "value": 1.15, "multiplier": 1.15 },
        { "symbol": "multiplier", "value": 1.20, "multiplier": 1.20 }
      ],

      "contract_level": [
        { "symbol": "option_2", "value": 1 },
        { "symbol": "option_3", "value": 2 },
        { "symbol": "option_4", "value": 3 }
      ]
    },

    "monthly": {
      "public_transport": [
        { "symbol": "option_4", "value": 4, "price": 9000 },
        { "symbol": "option_5", "value": 5, "price": 9500 }
      ],

      "bike_sharing": [
        { "symbol": "option_1", "value": 100 },
        { "symbol": "option_2", "value": 130 },
        { "symbol": "option_3", "value": 150 },
        { "symbol": "option_4", "value": 200 }
      ],

      "taxi": [
        { "symbol": "option_1", "value": 2000 },
        { "symbol": "option_2", "value": 2500 },
        { "symbol": "option_3", "value": 3000 },
        { "symbol": "option_4", "value": 3500 }
      ],

      "car_sharing": [
        { "symbol": "option_1", "value": 2500 },
        { "symbol": "option_2", "value": 2800 },
        { "symbol": "option_3", "value": 3000 },
        { "symbol": "option_4", "value": 3500 }
      ],

      "plan_fee": [
        { "symbol": "multiplier", "value": 0.80, "multiplier": 0.80 },
        { "symbol": "multiplier", "value": 0.85, "multiplier": 0.85 },
        { "symbol": "multiplier", "value": 0.88, "multiplier": 0.88 },
        { "symbol": "multiplier", "value": 0.95, "multiplier": 0.95 },
        { "symbol": "multiplier", "value": 1.00, "multiplier": 1.00 },
        { "symbol": "multiplier", "value": 1.05, "multiplier": 1.05 },
        { "symbol": "multiplier", "value": 1.12, "multiplier": 1.12 },
        { "symbol": "multiplier", "value": 1.15, "multiplier": 1.15 },
        { "symbol": "multiplier", "value": 1.20, "multiplier": 1.20 }
      ],

      "contract_level": [
        { "symbol": "option_5", "value": 1 },
        { "symbol": "option_3", "value": 2 },
        { "symbol": "option_6", "value": 3 },
        { "symbol": "option_7", "value": 4 }
      ]
    }
  }
}