<?xml version="1.0" encoding="UTF-8"?>
<svg width="60px" height="60px" viewBox="0 0 60 60" version="1.1" xmlns="http://www.w3.org/2000/svg" xmlns:xlink="http://www.w3.org/1999/xlink">
    <!-- Generator: Sketch 49.2 (51160) - http://www.bohemiancoding.com/sketch -->
    <title>Bike Icon</title>
    <desc>Created with Sketch.</desc>
    <defs></defs>
    <g id="Survey" stroke="none" stroke-width="1" fill="none" fill-rule="evenodd">
        <g transform="translate(-732.000000, -991.000000)" id="All-your-journeys-covered">
            <g transform="translate(543.000000, 913.000000)">
                <g id="Icons" transform="translate(0.000000, 73.000000)">
                    <g id="Bike-Sharing" transform="translate(174.000000, 0.000000)">
                        <g id="Bike-Icon" transform="translate(10.000000, 0.000000)">
                            <circle id="Oval" fill="#2B6993" cx="35" cy="35" r="30"></circle>
                            <g fill="#FFFFFF">
                                <g id="bike-icon-1" transform="translate(20.000000, 27.000000)" fill-rule="nonzero">
                                    <path d="M5.26321053,6.70967742 C2.94163158,6.70967742 1.05268421,8.56206452 1.05268421,10.8387097 C1.05268421,13.1153548 2.94163158,14.9677419 5.26321053,14.9677419 C7.58478947,14.9677419 9.47373684,13.1153548 9.47373684,10.8387097 C9.47373684,8.56206452 7.58478947,6.70967742 5.26321053,6.70967742 M5.26321053,16 C2.36110526,16 5.26315789e-05,13.6846452 5.26315789e-05,10.8387097 C5.26315789e-05,7.99277419 2.36110526,5.67741935 5.26321053,5.67741935 C8.16531579,5.67741935 10.5263684,7.99277419 10.5263684,10.8387097 C10.5263684,13.6846452 8.16531579,16 5.26321053,16" id="Shape"></path>
                                    <path d="M24.7368947,6.70967742 C22.4153158,6.70967742 20.5263684,8.56206452 20.5263684,10.8387097 C20.5263684,13.1153548 22.4153158,14.9677419 24.7368947,14.9677419 C27.0584737,14.9677419 28.9474211,13.1153548 28.9474211,10.8387097 C28.9474211,8.56206452 27.0584737,6.70967742 24.7368947,6.70967742 M24.7368947,16 C21.8347895,16 19.4737368,13.6846452 19.4737368,10.8387097 C19.4737368,7.99277419 21.8347895,5.67741935 24.7368947,5.67741935 C27.639,5.67741935 30.0000526,7.99277419 30.0000526,10.8387097 C30.0000526,13.6846452 27.639,16 24.7368947,16" id="Shape"></path>
                                    <path d="M6.165,10.4178581 L13.775,10.4178581 L9.96973684,4.61347097 L6.165,10.4178581 Z M5.205,11.3520516 C5.02394737,11.3319226 4.86657895,11.2219871 4.78815789,11.0604387 C4.70973684,10.8994065 4.72184211,10.709471 4.82026316,10.5592774 L9.55184211,3.34224516 C9.59710526,3.26947097 9.66131579,3.20753548 9.74184211,3.16314839 C9.82657895,3.11669677 9.91921053,3.09089032 10.0097368,3.09656774 L21.5792105,3.09656774 C21.7639474,3.09656774 21.9344737,3.19205161 22.0292105,3.34585806 L25.4210526,10.8165154 C25.5778947,11.0565154 25.5073684,11.3759993 25.2631579,11.5298057 C25.0178947,11.6851606 24.6926316,11.6144509 24.5352632,11.374967 L21.2913158,4.12882581 L10.9002632,4.12882581 L15.1952632,10.5830194 C15.2921053,10.7517935 15.2847368,10.9597935 15.1757895,11.1208258 C15.0773684,11.2663742 14.9121053,11.3520516 14.7368421,11.3520516 C14.7238596,11.3520516 11.5465789,11.3520516 5.205,11.3520516 Z" id="Shape"></path>
                                    <path d="M13.8328305,10.7520205 C13.6069632,10.5724121 13.5727409,10.247259 13.7564884,10.0258452 L19.9467314,3.76435976 C20.1299524,3.54346211 20.4621721,3.51043069 20.6869864,3.68952294 C20.9128537,3.86913131 20.947076,4.19428439 20.7633285,4.41569816 L14.5730855,10.6771836 C14.4693656,10.8025998 14.3177344,10.8676304 14.1645237,10.8676304 C14.0476414,10.8676304 13.9302325,10.829954 13.8328305,10.7520205 Z" id="Shape" transform="translate(17.259908, 7.220928) rotate(-10.000000) translate(-17.259908, -7.220928) "></path>
                                    <path d="M10.0005789,4.12903226 C9.82163158,4.12903226 9.64742105,4.03974194 9.549,3.87870968 L7.97005263,1.29806452 C7.82005263,1.05341935 7.90110526,0.736516129 8.15005263,0.589935484 C8.39952632,0.44283871 8.72321053,0.522322581 8.87215789,0.766451613 L10.4511053,3.34709677 C10.6011053,3.59174194 10.5200526,3.90864516 10.2711053,4.05522581 C10.1863684,4.10529032 10.0926842,4.12903226 10.0005789,4.12903226" id="Shape"></path>
                                    <path d="M11.0526842,1.5483871 L7.36847368,1.5483871 C7.07794737,1.5483871 6.84215789,1.31767742 6.84215789,1.03225806 C6.84215789,0.74683871 7.07794737,0.516129032 7.36847368,0.516129032 L11.0526842,0.516129032 C11.3432105,0.516129032 11.579,0.74683871 11.579,1.03225806 C11.579,1.31767742 11.3432105,1.5483871 11.0526842,1.5483871" id="Shape"></path>
                                    <path d="M21.5795263,4.12903226 C21.3863684,4.12903226 21.2005789,4.02477419 21.1079474,3.8436129 L19.6747895,1.03225806 L17.8947895,1.03225806 C17.6042632,1.03225806 17.3684737,0.801548387 17.3684737,0.516129032 C17.3684737,0.230709677 17.6042632,0 17.8947895,0 L20.0000526,0 C20.1995263,0 20.3816316,0.110451613 20.4711053,0.285419355 L22.0500526,3.38219355 C22.1800526,3.63716129 22.0742632,3.94683871 21.8142632,4.07483871 C21.739,4.11148387 21.6584737,4.12903226 21.5795263,4.12903226" id="Shape"></path>
                                </g>
                                <g id="Arrows" transform="translate(35.000000, 35.000000) rotate(-45.000000) translate(-35.000000, -35.000000) translate(9.000000, 12.000000)">
                                    <path d="M47.7290206,20.635514 L51.6620457,20.635514 L46.3774928,25.364486 L41.09294,20.635514 L45.1840036,20.635514 C44.3270552,10.5188995 35.9799811,2.57943925 25.8093543,2.57943925 C16.5208563,2.57943925 8.75330452,9.20139879 6.82302067,18.0560748 L4.31245218,18.0560748 L4.22764228,18.0775001 C6.1904052,7.77734417 15.106721,0 25.8093543,0 C37.3816452,0 46.8655249,9.09261328 47.7290206,20.635514 Z" id="Combined-Shape"></path>
                                    <path d="M43.5013783,41.271028 L47.4344034,41.271028 L42.1498505,46 L36.8652977,41.271028 L40.9563614,41.271028 C40.0994129,31.1544135 31.7523388,23.2149533 21.581712,23.2149533 C12.293214,23.2149533 4.52566224,29.8369128 2.5953784,38.6915888 L0.0848098987,38.6915888 L-3.55271368e-15,38.7130142 C1.96276292,28.4128582 10.8790787,20.635514 21.581712,20.635514 C33.1540029,20.635514 42.6378826,29.7281273 43.5013783,41.271028 Z" id="Combined-Shape-Copy" transform="translate(23.717202, 33.317757) scale(-1, -1) translate(-23.717202, -33.317757) "></path>
                                </g>
                            </g>
                        </g>
                    </g>
                </g>
            </g>
        </g>
    </g>
</svg>