<svg width="42" height="42" viewBox="0 0 42 42" version="1.1" xmlns="http://www.w3.org/2000/svg" xmlns:xlink="http://www.w3.org/1999/xlink">
<title>Group 6</title>
<desc>Created using Figma</desc>
<g id="Canvas" transform="translate(-843 -185)">
<g id="Group 6">
<g id="Oval 3 Copy">
<use xlink:href="#path0_fill" transform="translate(843 185)" fill="#0098FF"/>
</g>
<g id="car 3">
<g id="Line">
<use xlink:href="#path1_stroke" transform="translate(854.921 202.573)" fill="#FFFFFF"/>
</g>
<g id="Path 10">
<use xlink:href="#path2_stroke" transform="translate(852.993 197.438)" fill="#FFFFFF"/>
</g>
<g id="Path 2">
<use xlink:href="#path3_stroke" transform="translate(861.103 195.138)" fill="#FFFFFF"/>
</g>
<g id="Group 4">
<g id="Fill 10">
<use xlink:href="#path4_fill" transform="translate(852.76 205.495)" fill="#FFFFFF"/>
</g>
<g id="Fill 12">
<use xlink:href="#path4_fill" transform="translate(855.271 207.886)" fill="#FFFFFF"/>
</g>
<g id="Fill 13">
<use xlink:href="#path4_fill" transform="translate(857.782 205.495)" fill="#FFFFFF"/>
</g>
<g id="Fill 14">
<use xlink:href="#path4_fill" transform="translate(860.293 207.886)" fill="#FFFFFF"/>
</g>
<g id="Fill 15">
<use xlink:href="#path4_fill" transform="translate(862.804 205.495)" fill="#FFFFFF"/>
</g>
<g id="Fill 16">
<use xlink:href="#path4_fill" transform="translate(865.315 207.886)" fill="#FFFFFF"/>
</g>
<g id="Fill 17">
<use xlink:href="#path4_fill" transform="translate(867.826 205.495)" fill="#FFFFFF"/>
</g>
<g id="Fill 17 Copy">
<use xlink:href="#path4_fill" transform="translate(872.643 205.495)" fill="#FFFFFF"/>
</g>
<g id="Fill 18">
<use xlink:href="#path4_fill" transform="translate(870.336 207.886)" fill="#FFFFFF"/>
</g>
</g>
</g>
</g>
</g>
<defs>
<path id="path0_fill" fill-rule="evenodd" d="M 21 42C 32.598 42 42 32.598 42 21C 42 9.40202 32.598 0 21 0C 9.40202 0 0 9.40202 0 21C 0 32.598 9.40202 42 21 42Z"/>
<path id="path1_stroke" d="M 0.00279305 0.105771C -0.411418 0.104229 -0.748452 0.438762 -0.749995 0.852973C -0.751537 1.26718 -0.417004 1.60422 -0.00279305 1.60576L 0.00279305 0.105771ZM 18.7351 1.67554C 19.1493 1.67709 19.4864 1.34255 19.4879 0.928341C 19.4895 0.51413 19.1549 0.177096 18.7407 0.175553L 18.7351 1.67554ZM -0.00279305 1.60576L 18.7351 1.67554L 18.7407 0.175553L 0.00279305 0.105771L -0.00279305 1.60576Z"/>
<path id="path2_stroke" d="M 17.5605 14.3304L 17.5301 13.581L 17.5271 13.5811L 17.5605 14.3304ZM 22.1661 15.3333L 22.9161 15.3333L 22.1661 15.3333ZM 11.1311 -0.747309C 10.0904 -0.755461 8.63852 -0.753816 7.32795 -0.580519C 6.66923 -0.492032 5.9899 -0.346447 5.43678 -0.139959C 4.87346 0.0727003 4.31702 0.390887 3.95208 0.891295L 5.16403 1.77515C 5.28426 1.61028 5.53186 1.42747 5.96656 1.26337C 6.41145 1.0931 6.9241 0.986156 7.52644 0.90629C 8.73798 0.742882 10.0845 0.744527 11.1194 0.752645L 11.1311 -0.747309ZM 3.95208 0.891295C 3.43828 1.59876 2.92889 2.54075 2.47986 3.35106C 2.25552 3.75591 2.04935 4.12249 1.85539 4.42913C 1.65596 4.74489 1.51024 4.93051 1.41741 5.0148L 2.42575 6.12532C 2.6795 5.89491 2.91534 5.55989 3.12361 5.23014C 3.33736 4.89127 3.56504 4.48745 3.79189 4.07809C 4.24521 3.25997 4.70747 2.39823 5.16403 1.77515L 3.95208 0.891295ZM 1.41741 5.0148C 1.04074 5.35837 0.525033 5.94554 0.128356 6.57362C -0.26146 7.19541 -0.624092 7.98692 -0.624092 8.78472L 0.875908 8.78472C 0.875908 8.40542 1.06453 7.9043 1.39925 7.37038C 1.72712 6.84275 2.10924 6.41114 2.42575 6.12532L 1.41741 5.0148ZM -0.624092 8.78472C -0.624025 9.95175 -0.749932 14.6428 -0.75 15.5199L 0.75 15.5199C 0.749932 14.6629 0.87584 9.97188 0.875908 8.78472L -0.624092 8.78472ZM -0.75 15.5199C -0.75 15.9835 -0.700368 16.6518 -0.130049 17.1299C 0.383609 17.5606 1.15678 17.6902 2.12359 17.6902L 2.12359 16.1902C 1.19711 16.1902 0.908481 16.0432 0.833668 15.9805C 0.815515 15.9652 0.75 15.9234 0.75 15.5199L -0.75 15.5199ZM 2.12359 17.6902C 2.6724 17.6902 3.13674 17.6009 3.5134 17.4063C 3.90616 17.2033 4.16244 16.9063 4.30872 16.5765C 4.42678 16.2878 4.47104 15.9441 4.4722 15.7376C 4.47066 15.5195 4.45437 15.2931 4.45269 15.3333L 2.95269 15.3333C 2.95334 15.4097 2.95983 15.4953 2.96439 15.5596C 2.96905 15.6249 2.97262 15.6763 2.9722 15.7365C 2.97312 15.8652 2.97759 15.9007 2.93754 15.9684C 2.9257 15.9951 2.90554 16.032 2.82473 16.0737C 2.7278 16.1238 2.52143 16.1902 2.12359 16.1902L 2.12359 17.6902ZM 4.45269 15.3333C 4.45269 15.2432 4.47556 15.1885 4.49199 15.1682C 4.49634 15.1628 4.50997 15.1465 4.5538 15.1281C 4.60171 15.1081 4.69949 15.0804 4.87402 15.0804L 4.87402 13.5804C 4.19906 13.5804 3.66747 13.8029 3.32631 14.2241C 3.05776 14.5962 2.95504 15.0931 2.95269 15.3333L 4.45269 15.3333ZM 4.87402 15.0804C 5.86637 15.0801 8.39961 15.2077 11.5565 15.2079L 11.5565 13.7079C 8.43733 13.7082 5.9041 13.5806 4.87402 13.5804L 4.87402 15.0804ZM 11.5565 15.2079C 13.1335 15.2079 14.6453 15.1758 15.7568 15.1438C 16.3135 15.1278 16.7731 15.1118 17.0918 15.0998C 17.2516 15.0938 17.3772 15.0887 17.4621 15.0852C 17.5048 15.0835 17.5377 15.0821 17.5597 15.0811C 17.5708 15.0806 17.5793 15.0803 17.5849 15.08C 17.5878 15.0799 17.59 15.0798 17.5914 15.0797C 17.5922 15.0797 17.5928 15.0797 17.5931 15.0797C 17.5933 15.0797 17.5935 15.0797 17.5936 15.0796C 17.5937 15.0796 17.5937 15.0796 17.5937 15.0796C 17.5938 15.0796 17.5938 15.0796 17.5605 14.3304C 17.5271 13.5811 17.5271 13.5811 17.5271 13.5811C 17.5271 13.5811 17.5271 13.5811 17.5271 13.5811C 17.527 13.5811 17.5269 13.5811 17.5267 13.5811C 17.5264 13.5812 17.526 13.5812 17.5253 13.5812C 17.524 13.5813 17.522 13.5813 17.5194 13.5815C 17.514 13.5817 17.506 13.582 17.4953 13.5825C 17.4738 13.5834 17.4421 13.5848 17.4003 13.5865C 17.3162 13.59 17.1934 13.5949 17.0354 13.6008C 16.7187 13.6128 16.2657 13.6286 15.7137 13.6445C 14.6078 13.6763 13.1175 13.708 11.5565 13.7079L 11.5565 15.2079ZM 17.5605 14.3304C 17.5908 15.0798 17.5905 15.0798 17.5901 15.0798C 17.59 15.0798 17.5897 15.0798 17.5894 15.0798C 17.5897 15.0798 17.5877 15.0799 17.5881 15.0799C 17.5885 15.0799 17.585 15.08 17.5857 15.08C 17.5862 15.0799 17.5809 15.0801 17.582 15.0801C 17.582 15.0801 17.5777 15.0801 17.5781 15.0801C 17.5748 15.0802 17.5786 15.08 17.5835 15.0802C 17.6019 15.0807 17.6084 15.0808 17.6337 15.0843C 17.7033 15.0923 17.7258 15.0929 17.7806 15.1228C 17.8512 15.1512 17.8236 15.1216 17.8382 15.1631C 17.8396 15.1651 17.8698 15.2047 17.8698 15.3333L 19.3698 15.3333C 19.3698 14.4764 18.8947 13.9808 18.3997 13.7565C 18.1897 13.6664 17.9473 13.6123 17.8183 13.5957C 17.7443 13.5869 17.668 13.5822 17.6285 13.5809C 17.6044 13.5803 17.5789 13.5801 17.5667 13.5802C 17.5585 13.5802 17.5491 13.5804 17.5451 13.5805C 17.542 13.5806 17.5382 13.5807 17.5367 13.5808C 17.5355 13.5808 17.5338 13.5809 17.5332 13.5809C 17.5326 13.5809 17.5319 13.5809 17.5316 13.5809C 17.5313 13.5809 17.531 13.581 17.5308 13.581C 17.5305 13.581 17.5301 13.581 17.5605 14.3304ZM 17.8698 15.3333C 17.8699 15.5862 17.8651 15.8559 17.8891 16.1026C 17.9162 16.3651 17.9861 16.6916 18.2099 16.9844C 18.6618 17.5756 19.4642 17.6902 20.3614 17.6902L 20.3614 16.1902C 19.9437 16.1912 19.7071 16.1682 19.519 16.1134C 19.3756 16.0824 19.3862 16.0345 19.4017 16.0735C 19.4294 16.0873 19.3928 16.0864 19.3812 15.9487C 19.3639 15.796 19.3698 15.6034 19.3698 15.3333L 17.8698 15.3333ZM 20.3614 17.6902C 20.8436 17.6898 21.2631 17.6596 21.5702 17.5961C 21.9078 17.5241 22.2482 17.3874 22.506 17.1011C 22.7635 16.8151 22.8495 16.4779 22.885 16.1994C 22.9161 15.9417 22.9161 15.6397 22.9161 15.3333L 21.4161 15.3333C 21.4161 15.6436 21.4189 15.8508 21.397 16.0101C 21.3833 16.1459 21.3703 16.0973 21.3913 16.0974C 21.401 16.0675 21.4192 16.101 21.2576 16.129C 21.055 16.1741 20.7924 16.1906 20.3614 16.1902L 20.3614 17.6902ZM 22.9161 15.3333C 22.9161 14.1 22.9161 10.7753 22.9161 8.95228L 21.4161 8.95228C 21.4161 10.7753 21.4161 14.1 21.4161 15.3333L 22.9161 15.3333ZM 22.9161 8.95228C 22.9161 7.96617 22.767 7.23142 22.4387 6.61307C 22.1216 6.03665 21.6653 5.59026 21.2001 5.17903L 20.2069 6.3031C 20.6522 6.69645 20.9273 6.94417 21.1138 7.31646C 21.2892 7.64682 21.4161 8.11539 21.4161 8.95228L 22.9161 8.95228ZM 21.2001 5.17903C 20.858 4.87676 20.496 4.30647 20.0706 3.52221C 19.6587 2.76334 19.2285 1.88587 18.7493 1.10613L 17.4721 1.89272C 17.9147 2.60973 18.3255 3.45079 18.752 4.23741C 19.1649 4.99863 19.6384 5.80079 20.2069 6.3031L 21.2001 5.17903ZM 18.7493 1.10613C 18.3951 0.530961 17.7968 0.172689 17.1949 -0.0622567C 16.6017 -0.291214 15.865 -0.450505 15.1509 -0.547403C 13.7292 -0.737512 12.1659 -0.739192 11.1311 -0.747309L 11.1194 0.752645C 12.1601 0.760797 13.6287 0.759117 14.9503 0.939129C 15.6079 1.02729 16.1708 1.14559 16.6495 1.33505C 17.1195 1.51853 17.3654 1.71951 17.4721 1.89272L 18.7493 1.10613Z"/>
<path id="path3_stroke" d="M 0.700972 0L 0.700972 -0.75L 0.145477 -0.75L -0.0164546 -0.218631L 0.700972 0ZM 5.85768 0L 6.56892 -0.23799L 6.39759 -0.75L 5.85768 -0.75L 5.85768 0ZM 0.717426 2.51883L 1.4184 0.218631L -0.0164546 -0.218631L -0.717426 2.08157L 0.717426 2.51883ZM 0.700972 0.75L 5.85768 0.75L 5.85768 -0.75L 0.700972 -0.75L 0.700972 0.75ZM 5.14644 0.23799L 5.91208 2.52612L 7.33456 2.05014L 6.56892 -0.23799L 5.14644 0.23799Z"/>
<path id="path4_fill" fill-rule="evenodd" d="M 0 2.39108L 2.51082 2.39108L 2.51082 0L 0 0L 0 2.39108Z"/>
</defs>
</svg>
